{
  "position": {
    "horizontal": {
      "position": "right",
      "distance": 24
    },
    "vertical": {
      "position": "bottom",
      "distance": 24,
      "gap": 10
    }
  },
  "theme": "material",
  "behaviour": {
    "autoHide": 5000,
    "onClick": false,
    "onMouseover": "pauseAutoHide",
    "showDismissButton": true,
    "stacking": 4
  },
  "animations": {
    "enabled": true,
    "show": {
      "preset": "slide",
      "speed": 200,
      "easing": "ease"
    },
    "hide": {
      "preset": "fade",
      "speed": 300,
      "easing": "ease",
      "offset": 50
    },
    "shift": {
      "speed": 200,
      "easing": "ease"
    },
    "overlap": 150
  }
}
